<?xml version="1.0" encoding="utf-8"?>
<!-- Generator: Adobe Illustrator 22.1.0, SVG Export Plug-In . SVG Version: 6.00 Build 0)  -->
<svg version="1.1" id="Layer_1" xmlns="http://www.w3.org/2000/svg" xmlns:xlink="http://www.w3.org/1999/xlink" x="0px" y="0px"
	 viewBox="0 0 154.9 166.3" style="enable-background:new 0 0 154.9 166.3;" xml:space="preserve">
<style type="text/css">
	.st0{fill:#FFFFFF;}
	.st1{fill:#FF0000;}
</style>
<g>
	<path class="st0" d="M52,128c-1.3-5.4,0.1-6.3,0.4-7.1c4.9-8.5,12.5-18.2,15.5-24.5c1.1-2.2-0.6-2.6-1.5-3.1
		c-0.2-0.1-1.2-0.7-4.3-2.4c-5.5-3.4-5.7-2.9-8.7-4.2c-8.3-3.6-12.6-8.2-14.7-12.3c-8.8-17.1-7.5-36.8-7.5-36.8S31.1,61.1,41,76.4
		c4.9,6,9,8.1,15.8,10.7c0.2-6.1,7.8-49.9,8.6-52c2.7-7.2,5.5-7.1,6.8-6.8c2.6,0.9,31,9.4,31,9.4C99.4,23.5,61.5,3.3,56,2.2
		c-5.1-1.2-14.2-4.8-26,1.2c-6.8,3.1-16.1,13.8-16.1,13.8S1.7,30,0,41.8c0,4.5,6,36.8,12.8,52.3c4.2,10.2,36.1,37.3,39.8,38
		C53.1,130.9,52.1,128.5,52,128z M56,3.3c1.2,0.3,11.6,4,28.6,15.4c8.2,5.7,16.5,14.7,16.8,17.3c-1.1,0.8-24.3-6.6-26.7-9.1
		c-1-4.6-6.4-10.3-8.7-12.7c-4.1-4.3-9.5-8.8-10.7-10.3C55.3,3.9,54.5,2.8,56,3.3z"/>
	<path class="st0" d="M99.7,44.9c3.1-1.6,4.2-5.5,3.5-6.9C103.4,38.7,102.9,42.4,99.7,44.9z"/>
	<path class="st0" d="M111,115.4l0.6,1.1l-6.2,3.5l0.6,1.1l-8.1,4.8c0,0-0.4-0.3-2.5,0.9l-1-1.7l1.5-2.3l0.7,1.1l4.1-2.4l-1.2-2.1
		l-4.1,2.5l-1.3-2.2l4.2-2.4l-1.2-2l-4.1,2.4l0.5,1l-6.1,3.6l0.5,1.1l-6.3,3.6c0-0.1-0.1-0.2-0.1-0.4c-0.8-3.1,0.7-4.9,1.1-5.5
		c1.8-3.2,9.7-16,11.4-19.2c0.1-0.2,2-3.7,2.2-5.6c0,0,0.4-1.1-1.4-2.5L92,90.9l7.5-45.8L67,35.8c0,0-5.2,25.5-8.3,49
		c-0.2,1.7-0.2,2.9-0.2,2.9s6.1,3.7,7.3,4.3c2.7,1.6,6.9,1.7,9.4,1.9c5,0.3,16.8,0.7,16.8,0.7s-10.7-0.1-16,0c-3.4,0-5.1,0.3-6,0.5
		c-1.2,0.2-1.2,1.2-1.5,1.7c-0.3,1.8-12.3,18.3-15.2,24c-0.8,1.2,2.2,3,2.6,3.1c2.9,1.4,7.1,2.6,8.9,2.9c2.6,0.5,4.6,0.3,6.1,0.3
		c2.5-0.2,8.8-0.1,8.8-0.1s-7.1,0.5-9.8,1c-2.3,0.4-5.6,0.6-7.3,0.6c-1.3,0-3.4,0-4.5,0c-3.9,0.3-4.4,1.1-4.5,2.1
		c0.2,1-0.5,1.6-0.5,1.6s5,3,11.7,4.3l-6,3.4c-3.5,0.6-19.9,6.2-31.2,18.2l4.8,8.2c18.4-4.6,31.3-18.1,31.3-18.1l29-16.8l1.1,2
		c4.7-1.4,6.2-3.6,6.2-3.6l-1.1-2l8.4-4.8l0.6,1.1l2.7-0.1l1,1.6l-1.9,1.5l2.4,4.1c4.4-1.5,6.2-3.6,6.2-3.6l-2.5-4.2l-2.3,0.8
		l-0.9-1.7l1.5-2.2l0.7,1.1l4.2-2.4l-1.2-2.1l-4.2,2.5l-1.3-2.2l4.2-2.4l-1.2-2L111,115.4z M88.2,84.2l-23.7-2.7l6.4-37.7l22.6,5.3
		L88.2,84.2z M91.3,129.7l-29.1,16.6l-2.4-4.1l8.7-5c4.5,0.3,9.4-0.3,14-3c1.3-0.9,0.9-2,0.2-3.8c-0.1-0.2-0.3-0.7-0.5-1.2l0,0
		l6.7-3.9l0.7,1.1l2.6-0.1l1.1,1.6C93.3,127.8,91.1,129.1,91.3,129.7z"/>
	<path class="st0" d="M148,114.3c0.3-0.1,0.1-0.6,0.1-0.6l-4.4-6.1c-0.4-0.7-0.6-2.1-0.6-2.3c0-0.3,0.2-0.5,0.2-0.5l0.4-0.2
		c0.3-0.1,0.5,0.2,0.5,0.2s1.4,1,1.8,1.9c0.3,0.6,3.2,6.4,3.3,6.5c0.1,0.3,0.3,0.3,0.4,0.2c0.1-0.1,0.5-0.6,0.5-0.6
		c0.3-0.3,0.2-1.1,0.2-1.1l-1.3-6.4c-0.1-0.6-0.2-0.8-0.8-0.9l-2.3-0.4c-0.2,0-0.3-0.1-0.5-0.5l-4.6-8c-0.7-1.1-1.8-1.7-3.6-0.8
		l-39.1,22.6l1.2,2.1L136.2,98c1.6-1.1,3.1-0.9,3.8,0.3l1.1,2c0,0-1.6-1.4-3.5-0.3l-17.2,9.9c-1,0.7-1.5,0.6-1.4,2.3
		c0,1.6-0.5,1.6-1.3,2.1l-1.2,0.7l1.2,2l3.8-2.3c1-0.5,0.7-1.3,0.7-1.3l0-1.1c0-0.8,0.6-1.1,0.6-1.1l14.5-8.3c2-0.9,2.7,0.2,2.7,0.2
		l1.7,2.6c0.3,0.5,0,0.9,0,0.9l-0.8,2.1c-0.1,0.5,0.2,0.7,0.2,0.7l5.2,4.5c0.3,0.4,0.6,0.5,1,0.5L148,114.3z"/>
	<polygon class="st1" points="99.4,119.3 99.3,119.3 99.4,119.4 99.4,119.3 	"/>
	<polygon class="st1" points="116.3,115 116.3,115.1 116.4,115.1 116.3,115 	"/>
	<path class="st0" d="M151,113.2c-0.3-0.2-0.6-0.4-0.8,0.3c-0.2,0.6-0.8,1-0.8,1s-0.6,0.4-1.6,0.4c-0.7,0-1,0.4-0.7,0.9
		c3.4,6.1,7.8,8.7,7.8,8.7S154.6,117.1,151,113.2z M148.7,116.2c-0.2-0.3-0.2-0.8,0.4-0.7c0.7,0,0.7,0,1-0.5
		c0.3-0.6,0.5-0.4,0.7-0.2c1.7,2.3,1.9,5.7,1.9,5.7S150.6,119.5,148.7,116.2z"/>
</g>
</svg>
